<svg width="32" height="32" viewBox="0 0 32 32" fill="none"
  xmlns="http://www.w3.org/2000/svg">
  <rect x="1.3335" y="6.66675" width="29.3333" height="2.66667" rx="1.33333" fill="white"/>
  <rect x="1.3335" y="13.3333" width="29.3333" height="2.66667" rx="1.33333" fill="white"/>
  <rect x="1.3335" y="20" width="29.3333" height="2.66667" rx="1.33333" fill="white"/>
</svg>
