<svg width="24" height="23" viewBox="0 0 24 23" fill="none"
  xmlns="http://www.w3.org/2000/svg">
  <path d="M12.019 15C13.6759 15 15.019 13.6569 15.019 12C15.019 10.3431 13.6759 9 12.019 9C10.3622 9 9.01904 10.3431 9.01904 12C9.01904 13.6569 10.3622 15 12.019 15Z" stroke="#ED9954" strokeWidth="2" strokeLinejoin="round"/>
  <path fill-rule="evenodd" clip-rule="evenodd" d="M22.9827 12C20.6967 8.22998 16.7271 5 12.1 5C7.43588 5 3.27561 8.17937 1 12C3.87076 16.6667 7.57077 19 12.1 19C16.6293 19 20.2569 16.6667 22.9827 12Z" stroke="#ED9954" strokeWidth="2" strokeLinejoin="round"/>
  <path d="M2 22L23 1" stroke="#ED9954" strokeWidth="2" strokeLinecap="round" stroke-linejoin="round"/>
</svg>
