<svg viewBox="0 0 22 21" fill="none"
  xmlns="http://www.w3.org/2000/svg">
  <path d="M11.0001 1C11.2175 1 11.4114 1.12737 11.496 1.32299L14.0514 7.27287L20.5118 7.8564C20.7284 7.87582 20.909 8.01944 20.9742 8.21993C21.0392 8.41931 20.9791 8.63586 20.8189 8.77533L15.9302 13.0394L17.3721 19.3577C17.4185 19.5616 17.3388 19.7724 17.1657 19.8972C16.99 20.0239 16.7556 20.034 16.5705 19.9233L11.0002 16.6103L5.42927 19.9224C5.34288 19.9738 5.24774 20 5.15085 20C5.03773 20 4.92738 19.9646 4.83284 19.8966C4.66043 19.7727 4.58076 19.5621 4.62733 19.3571L6.06909 13.0395L1.1809 8.77498C1.02073 8.63596 0.960883 8.41934 1.02575 8.2209C1.09152 8.01971 1.27187 7.87623 1.48846 7.85631L7.94883 7.27288L10.5048 1.32278C10.5891 1.12734 10.7828 1 11.0001 1Z" strokeWidth="2"/>
</svg>
