<svg width="24" height="24" viewBox="0 0 24 24" fill="none"
 xmlns="http://www.w3.org/2000/svg">
 <path d="M12.0001 2C12.2175 2 12.4114 2.12737 12.496 2.32299L15.0514 8.27287L21.5118 8.8564C21.7284 8.87582 21.909 9.01944 21.9742 9.21993C22.0392 9.41931 21.9791 9.63586 21.8189 9.77533L16.9302 14.0394L18.3721 20.3577C18.4185 20.5616 18.3388 20.7724 18.1657 20.8972C17.99 21.0239 17.7556 21.034 17.5705 20.9233L12.0002 17.6103L6.42927 20.9224C6.34288 20.9738 6.24774 21 6.15085 21C6.03773 21 5.92738 20.9646 5.83284 20.8966C5.66043 20.7727 5.58076 20.5621 5.62733 20.3571L7.06909 14.0395L2.1809 9.77498C2.02073 9.63596 1.96088 9.41934 2.02575 9.2209C2.09152 9.01971 2.27187 8.87623 2.48846 8.85631L8.94883 8.27288L11.5048 2.32278C11.5891 2.12734 11.7828 2 12.0001 2Z" stroke="#5266E6" stroke-width="2"/>
</svg>
